*** Gradle ***

Start med Fake storage:
-----------------------
./gradlew startservice

Start med Redis storage:
-----------------------
./gradlew startservice -Prealstoragehost=localhost -Prealstorageport=6379

Byg fatJar:
-----------------------
./gradlew fatJar


*** Docker ***


Run Redis container:
--------------------
docker run -p 6379:6379 --name my-redis-container -d redis

Run message service against Redis:
----------------------------------
docker run -d -p 4567:4567 --name delta-message-service tjuul7/message-service java -jar /root/message-service/messageservice.jar ip-address 6379

Run message service against Fake storage:
-----------------------------------------
docker run -d -p 4567:4567 --name delta-message-service tjuul7/message-service